# Derived from project site
104.152.52.21
104.152.52.22
104.152.52.23
104.152.52.24
104.152.52.25
104.152.52.26
104.152.52.27
104.152.52.28
104.152.52.29
104.152.52.30
104.152.52.31
104.152.52.32
104.152.52.33
104.152.52.34
104.152.52.35
104.152.52.36
104.152.52.37
104.152.52.38
104.152.52.39
