162.142.125.0
162.142.125.1
162.142.125.10
162.142.125.100
162.142.125.101
162.142.125.102
162.142.125.103
162.142.125.104
162.142.125.105
162.142.125.106
162.142.125.107
162.142.125.108
162.142.125.109
162.142.125.11
162.142.125.110
162.142.125.111
162.142.125.112
162.142.125.113
162.142.125.114
162.142.125.115
162.142.125.116
162.142.125.117
162.142.125.118
162.142.125.119
162.142.125.12
162.142.125.120
162.142.125.121
162.142.125.122
162.142.125.123
162.142.125.124
162.142.125.125
162.142.125.126
162.142.125.127
162.142.125.128
162.142.125.129
162.142.125.13
162.142.125.130
162.142.125.131
162.142.125.132
162.142.125.133
162.142.125.134
162.142.125.135
162.142.125.136
162.142.125.137
162.142.125.138
162.142.125.139
162.142.125.14
162.142.125.140
162.142.125.141
162.142.125.142
162.142.125.143
162.142.125.144
162.142.125.145
162.142.125.146
162.142.125.147
162.142.125.148
162.142.125.149
162.142.125.15
162.142.125.150
162.142.125.151
162.142.125.152
162.142.125.153
162.142.125.154
162.142.125.155
162.142.125.156
162.142.125.157
162.142.125.158
162.142.125.159
162.142.125.16
162.142.125.160
162.142.125.161
162.142.125.162
162.142.125.163
162.142.125.164
162.142.125.165
162.142.125.166
162.142.125.167
162.142.125.168
162.142.125.169
162.142.125.17
162.142.125.170
162.142.125.171
162.142.125.172
162.142.125.173
162.142.125.174
162.142.125.175
162.142.125.176
162.142.125.177
162.142.125.178
162.142.125.179
162.142.125.18
162.142.125.180
162.142.125.181
162.142.125.182
162.142.125.183
162.142.125.184
162.142.125.185
162.142.125.186
162.142.125.187
162.142.125.188
162.142.125.189
162.142.125.19
162.142.125.190
162.142.125.191
162.142.125.192
162.142.125.193
162.142.125.194
162.142.125.195
162.142.125.196
162.142.125.197
162.142.125.198
162.142.125.199
162.142.125.2
162.142.125.20
162.142.125.200
162.142.125.201
162.142.125.202
162.142.125.203
162.142.125.204
162.142.125.205
162.142.125.206
162.142.125.207
162.142.125.208
162.142.125.209
162.142.125.21
162.142.125.210
162.142.125.211
162.142.125.212
162.142.125.213
162.142.125.214
162.142.125.215
162.142.125.216
162.142.125.217
162.142.125.218
162.142.125.219
162.142.125.22
162.142.125.220
162.142.125.221
162.142.125.222
162.142.125.223
162.142.125.224
162.142.125.225
162.142.125.226
162.142.125.227
162.142.125.228
162.142.125.229
162.142.125.23
162.142.125.230
162.142.125.231
162.142.125.232
162.142.125.233
162.142.125.234
162.142.125.235
162.142.125.236
162.142.125.237
162.142.125.238
162.142.125.239
162.142.125.24
162.142.125.240
162.142.125.241
162.142.125.242
162.142.125.243
162.142.125.244
162.142.125.245
162.142.125.246
162.142.125.247
162.142.125.248
162.142.125.249
162.142.125.25
162.142.125.250
162.142.125.251
162.142.125.252
162.142.125.253
162.142.125.254
162.142.125.255
162.142.125.26
162.142.125.27
162.142.125.28
162.142.125.29
162.142.125.3
162.142.125.30
162.142.125.31
162.142.125.32
162.142.125.33
162.142.125.34
162.142.125.35
162.142.125.36
162.142.125.37
162.142.125.38
162.142.125.39
162.142.125.4
162.142.125.40
162.142.125.41
162.142.125.42
162.142.125.43
162.142.125.44
162.142.125.45
162.142.125.46
162.142.125.47
162.142.125.48
162.142.125.49
162.142.125.5
162.142.125.50
162.142.125.51
162.142.125.52
162.142.125.53
162.142.125.54
162.142.125.55
162.142.125.56
162.142.125.57
162.142.125.58
162.142.125.59
162.142.125.6
162.142.125.60
162.142.125.61
162.142.125.62
162.142.125.63
162.142.125.64
162.142.125.65
162.142.125.66
162.142.125.67
162.142.125.68
162.142.125.69
162.142.125.7
162.142.125.70
162.142.125.71
162.142.125.72
162.142.125.73
162.142.125.74
162.142.125.75
162.142.125.76
162.142.125.77
162.142.125.78
162.142.125.79
162.142.125.8
162.142.125.80
162.142.125.81
162.142.125.82
162.142.125.83
162.142.125.84
162.142.125.85
162.142.125.86
162.142.125.87
162.142.125.88
162.142.125.89
162.142.125.9
162.142.125.90
162.142.125.91
162.142.125.92
162.142.125.93
162.142.125.94
162.142.125.95
162.142.125.96
162.142.125.97
162.142.125.98
162.142.125.99
167.94.138.0/24
167.248.133.16
167.248.133.17
167.248.133.18
167.248.133.19
167.248.133.20
167.248.133.21
167.248.133.22
167.248.133.23
167.248.133.24
167.248.133.25
167.248.133.26
167.248.133.27
167.248.133.28
167.248.133.29
167.248.133.30
167.248.133.31
167.248.133.64
167.248.133.65
167.248.133.66
167.248.133.67
167.248.133.68
167.248.133.69
167.248.133.70
167.248.133.71
167.248.133.72
167.248.133.73
167.248.133.74
167.248.133.75
167.248.133.76
167.248.133.77
167.248.133.78
167.248.133.79
167.248.133.80
167.248.133.81
167.248.133.82
167.248.133.83
167.248.133.84
167.248.133.85
167.248.133.86
167.248.133.87
167.248.133.88
167.248.133.89
167.248.133.90
167.248.133.91
167.248.133.92
167.248.133.93
167.248.133.94
167.248.133.95
192.35.168.0
192.35.168.1
192.35.168.10
192.35.168.100
192.35.168.101
192.35.168.102
192.35.168.103
192.35.168.104
192.35.168.105
192.35.168.106
192.35.168.107
192.35.168.108
192.35.168.109
192.35.168.11
192.35.168.110
192.35.168.111
192.35.168.112
192.35.168.113
192.35.168.114
192.35.168.115
192.35.168.116
192.35.168.117
192.35.168.118
192.35.168.119
192.35.168.12
192.35.168.120
192.35.168.121
192.35.168.122
192.35.168.123
192.35.168.124
192.35.168.125
192.35.168.126
192.35.168.127
192.35.168.128
192.35.168.129
192.35.168.13
192.35.168.130
192.35.168.131
192.35.168.132
192.35.168.133
192.35.168.134
192.35.168.135
192.35.168.136
192.35.168.137
192.35.168.138
192.35.168.139
192.35.168.14
192.35.168.140
192.35.168.141
192.35.168.142
192.35.168.143
192.35.168.144
192.35.168.145
192.35.168.146
192.35.168.147
192.35.168.148
192.35.168.149
192.35.168.15
192.35.168.150
192.35.168.151
192.35.168.152
192.35.168.153
192.35.168.154
192.35.168.155
192.35.168.156
192.35.168.157
192.35.168.158
192.35.168.159
192.35.168.16
192.35.168.160
192.35.168.161
192.35.168.162
192.35.168.163
192.35.168.164
192.35.168.165
192.35.168.166
192.35.168.167
192.35.168.168
192.35.168.169
192.35.168.17
192.35.168.170
192.35.168.171
192.35.168.172
192.35.168.173
192.35.168.174
192.35.168.175
192.35.168.176
192.35.168.177
192.35.168.178
192.35.168.179
192.35.168.18
192.35.168.180
192.35.168.181
192.35.168.182
192.35.168.183
192.35.168.184
192.35.168.185
192.35.168.186
192.35.168.187
192.35.168.188
192.35.168.189
192.35.168.19
192.35.168.190
192.35.168.191
192.35.168.192
192.35.168.193
192.35.168.194
192.35.168.195
192.35.168.196
192.35.168.197
192.35.168.198
192.35.168.199
192.35.168.2
192.35.168.20
192.35.168.200
192.35.168.201
192.35.168.202
192.35.168.203
192.35.168.204
192.35.168.205
192.35.168.206
192.35.168.207
192.35.168.208
192.35.168.209
192.35.168.21
192.35.168.210
192.35.168.211
192.35.168.212
192.35.168.213
192.35.168.214
192.35.168.215
192.35.168.216
192.35.168.217
192.35.168.218
192.35.168.219
192.35.168.22
192.35.168.220
192.35.168.221
192.35.168.222
192.35.168.223
192.35.168.224
192.35.168.225
192.35.168.226
192.35.168.227
192.35.168.228
192.35.168.229
192.35.168.23
192.35.168.230
192.35.168.231
192.35.168.232
192.35.168.233
192.35.168.234
192.35.168.235
192.35.168.236
192.35.168.237
192.35.168.238
192.35.168.239
192.35.168.24
192.35.168.240
192.35.168.241
192.35.168.242
192.35.168.243
192.35.168.244
192.35.168.245
192.35.168.246
192.35.168.247
192.35.168.248
192.35.168.249
192.35.168.25
192.35.168.250
192.35.168.251
192.35.168.252
192.35.168.253
192.35.168.254
192.35.168.255
192.35.168.26
192.35.168.27
192.35.168.28
192.35.168.29
192.35.168.3
192.35.168.30
192.35.168.31
192.35.168.32
192.35.168.33
192.35.168.34
192.35.168.35
192.35.168.36
192.35.168.37
192.35.168.38
192.35.168.39
192.35.168.4
192.35.168.40
192.35.168.41
192.35.168.42
192.35.168.43
192.35.168.44
192.35.168.45
192.35.168.46
192.35.168.47
192.35.168.48
192.35.168.49
192.35.168.5
192.35.168.50
192.35.168.51
192.35.168.52
192.35.168.53
192.35.168.54
192.35.168.55
192.35.168.56
192.35.168.57
192.35.168.58
192.35.168.59
192.35.168.6
192.35.168.60
192.35.168.61
192.35.168.62
192.35.168.63
192.35.168.64
192.35.168.65
192.35.168.66
192.35.168.67
192.35.168.68
192.35.168.69
192.35.168.7
192.35.168.70
192.35.168.71
192.35.168.72
192.35.168.73
192.35.168.74
192.35.168.75
192.35.168.76
192.35.168.77
192.35.168.78
192.35.168.79
192.35.168.8
192.35.168.80
192.35.168.81
192.35.168.82
192.35.168.83
192.35.168.84
192.35.168.85
192.35.168.86
192.35.168.87
192.35.168.88
192.35.168.89
192.35.168.9
192.35.168.90
192.35.168.91
192.35.168.92
192.35.168.93
192.35.168.94
192.35.168.95
192.35.168.96
192.35.168.97
192.35.168.98
192.35.168.99
192.35.169.0
192.35.169.1
192.35.169.10
192.35.169.100
192.35.169.101
192.35.169.102
192.35.169.103
192.35.169.104
192.35.169.105
192.35.169.106
192.35.169.107
192.35.169.108
192.35.169.109
192.35.169.11
192.35.169.110
192.35.169.111
192.35.169.112
192.35.169.113
192.35.169.114
192.35.169.115
192.35.169.116
192.35.169.117
192.35.169.118
192.35.169.119
192.35.169.12
192.35.169.120
192.35.169.121
192.35.169.122
192.35.169.123
192.35.169.124
192.35.169.125
192.35.169.126
192.35.169.127
192.35.169.128
192.35.169.129
192.35.169.13
192.35.169.130
192.35.169.131
192.35.169.132
192.35.169.133
192.35.169.134
192.35.169.135
192.35.169.136
192.35.169.137
192.35.169.138
192.35.169.139
192.35.169.14
192.35.169.140
192.35.169.141
192.35.169.142
192.35.169.143
192.35.169.144
192.35.169.145
192.35.169.146
192.35.169.147
192.35.169.148
192.35.169.149
192.35.169.15
192.35.169.150
192.35.169.151
192.35.169.152
192.35.169.153
192.35.169.154
192.35.169.155
192.35.169.156
192.35.169.157
192.35.169.158
192.35.169.159
192.35.169.16
192.35.169.160
192.35.169.161
192.35.169.162
192.35.169.163
192.35.169.164
192.35.169.165
192.35.169.166
192.35.169.167
192.35.169.168
192.35.169.169
192.35.169.17
192.35.169.170
192.35.169.171
192.35.169.172
192.35.169.173
192.35.169.174
192.35.169.175
192.35.169.176
192.35.169.177
192.35.169.178
192.35.169.179
192.35.169.18
192.35.169.180
192.35.169.181
192.35.169.182
192.35.169.183
192.35.169.184
192.35.169.185
192.35.169.186
192.35.169.187
192.35.169.188
192.35.169.189
192.35.169.19
192.35.169.190
192.35.169.191
192.35.169.192
192.35.169.193
192.35.169.194
192.35.169.195
192.35.169.196
192.35.169.197
192.35.169.198
192.35.169.199
192.35.169.2
192.35.169.20
192.35.169.200
192.35.169.201
192.35.169.202
192.35.169.203
192.35.169.204
192.35.169.205
192.35.169.206
192.35.169.207
192.35.169.208
192.35.169.209
192.35.169.21
192.35.169.210
192.35.169.211
192.35.169.212
192.35.169.213
192.35.169.214
192.35.169.215
192.35.169.216
192.35.169.217
192.35.169.218
192.35.169.219
192.35.169.22
192.35.169.220
192.35.169.221
192.35.169.222
192.35.169.223
192.35.169.224
192.35.169.225
192.35.169.226
192.35.169.227
192.35.169.228
192.35.169.229
192.35.169.23
192.35.169.230
192.35.169.231
192.35.169.232
192.35.169.233
192.35.169.234
192.35.169.235
192.35.169.236
192.35.169.237
192.35.169.238
192.35.169.239
192.35.169.24
192.35.169.240
192.35.169.241
192.35.169.242
192.35.169.243
192.35.169.244
192.35.169.245
192.35.169.246
192.35.169.247
192.35.169.248
192.35.169.249
192.35.169.25
192.35.169.250
192.35.169.251
192.35.169.252
192.35.169.253
192.35.169.254
192.35.169.255
192.35.169.26
192.35.169.27
192.35.169.28
192.35.169.29
192.35.169.3
192.35.169.30
192.35.169.31
192.35.169.32
192.35.169.33
192.35.169.34
192.35.169.35
192.35.169.36
192.35.169.37
192.35.169.38
192.35.169.39
192.35.169.4
192.35.169.40
192.35.169.41
192.35.169.42
192.35.169.43
192.35.169.44
192.35.169.45
192.35.169.46
192.35.169.47
192.35.169.48
192.35.169.49
192.35.169.5
192.35.169.50
192.35.169.51
192.35.169.52
192.35.169.53
192.35.169.54
192.35.169.55
192.35.169.56
192.35.169.57
192.35.169.58
192.35.169.59
192.35.169.6
192.35.169.60
192.35.169.61
192.35.169.62
192.35.169.63
192.35.169.64
192.35.169.65
192.35.169.66
192.35.169.67
192.35.169.68
192.35.169.69
192.35.169.7
192.35.169.70
192.35.169.71
192.35.169.72
192.35.169.73
192.35.169.74
192.35.169.75
192.35.169.76
192.35.169.77
192.35.169.78
192.35.169.79
192.35.169.8
192.35.169.80
192.35.169.81
192.35.169.82
192.35.169.83
192.35.169.84
192.35.169.85
192.35.169.86
192.35.169.87
192.35.169.88
192.35.169.89
192.35.169.9
192.35.169.90
192.35.169.91
192.35.169.92
192.35.169.93
192.35.169.94
192.35.169.95
192.35.169.96
192.35.169.97
192.35.169.98
192.35.169.99
198.108.66.0
198.108.66.1
198.108.66.10
198.108.66.100
198.108.66.101
198.108.66.102
198.108.66.103
198.108.66.104
198.108.66.105
198.108.66.106
198.108.66.107
198.108.66.108
198.108.66.109
198.108.66.11
198.108.66.110
198.108.66.111
198.108.66.112
198.108.66.113
198.108.66.114
198.108.66.115
198.108.66.116
198.108.66.117
198.108.66.118
198.108.66.119
198.108.66.12
198.108.66.120
198.108.66.121
198.108.66.122
198.108.66.123
198.108.66.124
198.108.66.125
198.108.66.126
198.108.66.127
198.108.66.128
198.108.66.129
198.108.66.13
198.108.66.130
198.108.66.131
198.108.66.132
198.108.66.133
198.108.66.134
198.108.66.135
198.108.66.136
198.108.66.137
198.108.66.138
198.108.66.139
198.108.66.14
198.108.66.140
198.108.66.141
198.108.66.142
198.108.66.143
198.108.66.144
198.108.66.145
198.108.66.146
198.108.66.147
198.108.66.148
198.108.66.149
198.108.66.15
198.108.66.150
198.108.66.151
198.108.66.152
198.108.66.153
198.108.66.154
198.108.66.155
198.108.66.156
198.108.66.157
198.108.66.158
198.108.66.159
198.108.66.16
198.108.66.160
198.108.66.161
198.108.66.162
198.108.66.163
198.108.66.164
198.108.66.165
198.108.66.166
198.108.66.167
198.108.66.168
198.108.66.169
198.108.66.17
198.108.66.170
198.108.66.171
198.108.66.172
198.108.66.173
198.108.66.174
198.108.66.175
198.108.66.176
198.108.66.177
198.108.66.178
198.108.66.179
198.108.66.18
198.108.66.180
198.108.66.181
198.108.66.182
198.108.66.183
198.108.66.184
198.108.66.185
198.108.66.186
198.108.66.187
198.108.66.188
198.108.66.189
198.108.66.19
198.108.66.190
198.108.66.191
198.108.66.192
198.108.66.193
198.108.66.194
198.108.66.195
198.108.66.196
198.108.66.197
198.108.66.198
198.108.66.199
198.108.66.2
198.108.66.20
198.108.66.200
198.108.66.201
198.108.66.202
198.108.66.203
198.108.66.204
198.108.66.205
198.108.66.206
198.108.66.207
198.108.66.208
198.108.66.209
198.108.66.21
198.108.66.210
198.108.66.211
198.108.66.212
198.108.66.213
198.108.66.214
198.108.66.215
198.108.66.216
198.108.66.217
198.108.66.218
198.108.66.219
198.108.66.22
198.108.66.220
198.108.66.221
198.108.66.222
198.108.66.223
198.108.66.224
198.108.66.225
198.108.66.226
198.108.66.227
198.108.66.228
198.108.66.229
198.108.66.23
198.108.66.230
198.108.66.231
198.108.66.232
198.108.66.233
198.108.66.234
198.108.66.235
198.108.66.236
198.108.66.237
198.108.66.238
198.108.66.239
198.108.66.24
198.108.66.240
198.108.66.241
198.108.66.242
198.108.66.243
198.108.66.244
198.108.66.245
198.108.66.246
198.108.66.247
198.108.66.248
198.108.66.249
198.108.66.25
198.108.66.250
198.108.66.251
198.108.66.252
198.108.66.253
198.108.66.254
198.108.66.255
198.108.66.26
198.108.66.27
198.108.66.28
198.108.66.29
198.108.66.3
198.108.66.30
198.108.66.31
198.108.66.32
198.108.66.33
198.108.66.34
198.108.66.35
198.108.66.36
198.108.66.37
198.108.66.38
198.108.66.39
198.108.66.4
198.108.66.40
198.108.66.41
198.108.66.42
198.108.66.43
198.108.66.44
198.108.66.45
198.108.66.46
198.108.66.47
198.108.66.48
198.108.66.49
198.108.66.5
198.108.66.50
198.108.66.51
198.108.66.52
198.108.66.53
198.108.66.54
198.108.66.55
198.108.66.56
198.108.66.57
198.108.66.58
198.108.66.59
198.108.66.6
198.108.66.60
198.108.66.61
198.108.66.62
198.108.66.63
198.108.66.64
198.108.66.65
198.108.66.66
198.108.66.67
198.108.66.68
198.108.66.69
198.108.66.7
198.108.66.70
198.108.66.71
198.108.66.72
198.108.66.73
198.108.66.74
198.108.66.75
198.108.66.76
198.108.66.77
198.108.66.78
198.108.66.79
198.108.66.8
198.108.66.80
198.108.66.81
198.108.66.82
198.108.66.83
198.108.66.84
198.108.66.85
198.108.66.86
198.108.66.87
198.108.66.88
198.108.66.89
198.108.66.9
198.108.66.90
198.108.66.91
198.108.66.92
198.108.66.93
198.108.66.94
198.108.66.95
198.108.66.96
198.108.66.97
198.108.66.98
198.108.66.99
198.108.67.0
198.108.67.1
198.108.67.10
198.108.67.100
198.108.67.101
198.108.67.102
198.108.67.103
198.108.67.104
198.108.67.105
198.108.67.106
198.108.67.107
198.108.67.108
198.108.67.109
198.108.67.11
198.108.67.110
198.108.67.111
198.108.67.112
198.108.67.113
198.108.67.114
198.108.67.115
198.108.67.116
198.108.67.117
198.108.67.118
198.108.67.119
198.108.67.12
198.108.67.120
198.108.67.121
198.108.67.122
198.108.67.123
198.108.67.124
198.108.67.125
198.108.67.126
198.108.67.127
198.108.67.128
198.108.67.129
198.108.67.13
198.108.67.130
198.108.67.131
198.108.67.132
198.108.67.133
198.108.67.134
198.108.67.135
198.108.67.136
198.108.67.137
198.108.67.138
198.108.67.139
198.108.67.14
198.108.67.140
198.108.67.141
198.108.67.142
198.108.67.143
198.108.67.144
198.108.67.145
198.108.67.146
198.108.67.147
198.108.67.148
198.108.67.149
198.108.67.15
198.108.67.150
198.108.67.151
198.108.67.152
198.108.67.153
198.108.67.154
198.108.67.155
198.108.67.156
198.108.67.157
198.108.67.158
198.108.67.159
198.108.67.16
198.108.67.160
198.108.67.161
198.108.67.162
198.108.67.163
198.108.67.164
198.108.67.165
198.108.67.166
198.108.67.167
198.108.67.168
198.108.67.169
198.108.67.17
198.108.67.170
198.108.67.171
198.108.67.172
198.108.67.173
198.108.67.174
198.108.67.175
198.108.67.176
198.108.67.177
198.108.67.178
198.108.67.179
198.108.67.18
198.108.67.180
198.108.67.181
198.108.67.182
198.108.67.183
198.108.67.184
198.108.67.185
198.108.67.186
198.108.67.187
198.108.67.188
198.108.67.189
198.108.67.19
198.108.67.190
198.108.67.191
198.108.67.192
198.108.67.193
198.108.67.194
198.108.67.195
198.108.67.196
198.108.67.197
198.108.67.198
198.108.67.199
198.108.67.2
198.108.67.20
198.108.67.200
198.108.67.201
198.108.67.202
198.108.67.203
198.108.67.204
198.108.67.205
198.108.67.206
198.108.67.207
198.108.67.208
198.108.67.209
198.108.67.21
198.108.67.210
198.108.67.211
198.108.67.212
198.108.67.213
198.108.67.214
198.108.67.215
198.108.67.216
198.108.67.217
198.108.67.218
198.108.67.219
198.108.67.22
198.108.67.220
198.108.67.221
198.108.67.222
198.108.67.223
198.108.67.224
198.108.67.225
198.108.67.226
198.108.67.227
198.108.67.228
198.108.67.229
198.108.67.23
198.108.67.230
198.108.67.231
198.108.67.232
198.108.67.233
198.108.67.234
198.108.67.235
198.108.67.236
198.108.67.237
198.108.67.238
198.108.67.239
198.108.67.24
198.108.67.240
198.108.67.241
198.108.67.242
198.108.67.243
198.108.67.244
198.108.67.245
198.108.67.246
198.108.67.247
198.108.67.248
198.108.67.249
198.108.67.25
198.108.67.250
198.108.67.251
198.108.67.252
198.108.67.253
198.108.67.254
198.108.67.255
198.108.67.26
198.108.67.27
198.108.67.28
198.108.67.29
198.108.67.3
198.108.67.30
198.108.67.31
198.108.67.32
198.108.67.33
198.108.67.34
198.108.67.35
198.108.67.36
198.108.67.37
198.108.67.38
198.108.67.39
198.108.67.4
198.108.67.40
198.108.67.41
198.108.67.42
198.108.67.43
198.108.67.44
198.108.67.45
198.108.67.46
198.108.67.47
198.108.67.48
198.108.67.49
198.108.67.5
198.108.67.50
198.108.67.51
198.108.67.52
198.108.67.53
198.108.67.54
198.108.67.55
198.108.67.56
198.108.67.57
198.108.67.58
198.108.67.59
198.108.67.6
198.108.67.60
198.108.67.61
198.108.67.62
198.108.67.63
198.108.67.64
198.108.67.65
198.108.67.66
198.108.67.67
198.108.67.68
198.108.67.69
198.108.67.7
198.108.67.70
198.108.67.71
198.108.67.72
198.108.67.73
198.108.67.74
198.108.67.75
198.108.67.76
198.108.67.77
198.108.67.78
198.108.67.79
198.108.67.8
198.108.67.80
198.108.67.81
198.108.67.82
198.108.67.83
198.108.67.84
198.108.67.85
198.108.67.86
198.108.67.87
198.108.67.88
198.108.67.89
198.108.67.9
198.108.67.90
198.108.67.91
198.108.67.92
198.108.67.93
198.108.67.94
198.108.67.95
198.108.67.96
198.108.67.97
198.108.67.98
198.108.67.99
74.120.14.0
74.120.14.1
74.120.14.10
74.120.14.100
74.120.14.101
74.120.14.102
74.120.14.103
74.120.14.104
74.120.14.105
74.120.14.106
74.120.14.107
74.120.14.108
74.120.14.109
74.120.14.11
74.120.14.110
74.120.14.111
74.120.14.112
74.120.14.113
74.120.14.114
74.120.14.115
74.120.14.116
74.120.14.117
74.120.14.118
74.120.14.119
74.120.14.12
74.120.14.120
74.120.14.121
74.120.14.122
74.120.14.123
74.120.14.124
74.120.14.125
74.120.14.126
74.120.14.127
74.120.14.128
74.120.14.129
74.120.14.13
74.120.14.130
74.120.14.131
74.120.14.132
74.120.14.133
74.120.14.134
74.120.14.135
74.120.14.136
74.120.14.137
74.120.14.138
74.120.14.139
74.120.14.14
74.120.14.140
74.120.14.141
74.120.14.142
74.120.14.143
74.120.14.144
74.120.14.145
74.120.14.146
74.120.14.147
74.120.14.148
74.120.14.149
74.120.14.15
74.120.14.150
74.120.14.151
74.120.14.152
74.120.14.153
74.120.14.154
74.120.14.155
74.120.14.156
74.120.14.157
74.120.14.158
74.120.14.159
74.120.14.16
74.120.14.160
74.120.14.161
74.120.14.162
74.120.14.163
74.120.14.164
74.120.14.165
74.120.14.166
74.120.14.167
74.120.14.168
74.120.14.169
74.120.14.17
74.120.14.170
74.120.14.171
74.120.14.172
74.120.14.173
74.120.14.174
74.120.14.175
74.120.14.176
74.120.14.177
74.120.14.178
74.120.14.179
74.120.14.18
74.120.14.180
74.120.14.181
74.120.14.182
74.120.14.183
74.120.14.184
74.120.14.185
74.120.14.186
74.120.14.187
74.120.14.188
74.120.14.189
74.120.14.19
74.120.14.190
74.120.14.191
74.120.14.192
74.120.14.193
74.120.14.194
74.120.14.195
74.120.14.196
74.120.14.197
74.120.14.198
74.120.14.199
74.120.14.2
74.120.14.20
74.120.14.200
74.120.14.201
74.120.14.202
74.120.14.203
74.120.14.204
74.120.14.205
74.120.14.206
74.120.14.207
74.120.14.208
74.120.14.209
74.120.14.21
74.120.14.210
74.120.14.211
74.120.14.212
74.120.14.213
74.120.14.214
74.120.14.215
74.120.14.216
74.120.14.217
74.120.14.218
74.120.14.219
74.120.14.22
74.120.14.220
74.120.14.221
74.120.14.222
74.120.14.223
74.120.14.224
74.120.14.225
74.120.14.226
74.120.14.227
74.120.14.228
74.120.14.229
74.120.14.23
74.120.14.230
74.120.14.231
74.120.14.232
74.120.14.233
74.120.14.234
74.120.14.235
74.120.14.236
74.120.14.237
74.120.14.238
74.120.14.239
74.120.14.24
74.120.14.240
74.120.14.241
74.120.14.242
74.120.14.243
74.120.14.244
74.120.14.245
74.120.14.246
74.120.14.247
74.120.14.248
74.120.14.249
74.120.14.25
74.120.14.250
74.120.14.251
74.120.14.252
74.120.14.253
74.120.14.254
74.120.14.255
74.120.14.26
74.120.14.27
74.120.14.28
74.120.14.29
74.120.14.3
74.120.14.30
74.120.14.31
74.120.14.32
74.120.14.33
74.120.14.34
74.120.14.35
74.120.14.36
74.120.14.37
74.120.14.38
74.120.14.39
74.120.14.4
74.120.14.40
74.120.14.41
74.120.14.42
74.120.14.43
74.120.14.44
74.120.14.45
74.120.14.46
74.120.14.47
74.120.14.48
74.120.14.49
74.120.14.5
74.120.14.50
74.120.14.51
74.120.14.52
74.120.14.53
74.120.14.54
74.120.14.55
74.120.14.56
74.120.14.57
74.120.14.58
74.120.14.59
74.120.14.6
74.120.14.60
74.120.14.61
74.120.14.62
74.120.14.63
74.120.14.64
74.120.14.65
74.120.14.66
74.120.14.67
74.120.14.68
74.120.14.69
74.120.14.7
74.120.14.70
74.120.14.71
74.120.14.72
74.120.14.73
74.120.14.74
74.120.14.75
74.120.14.76
74.120.14.77
74.120.14.78
74.120.14.79
74.120.14.8
74.120.14.80
74.120.14.81
74.120.14.82
74.120.14.83
74.120.14.84
74.120.14.85
74.120.14.86
74.120.14.87
74.120.14.88
74.120.14.89
74.120.14.9
74.120.14.90
74.120.14.91
74.120.14.92
74.120.14.93
74.120.14.94
74.120.14.95
74.120.14.96
74.120.14.97
74.120.14.98
74.120.14.99
198.108.66.0/23
198.108.67.42
198.108.67.43
198.108.67.48
